…
Now that you have the location ids if you would like to pull all of the transactions during a given timeframe, you would use the function sq_list_transactions().

# list all transactions for our 2nd location on May 11, 2018
# by default, if a date is provided with no time, then the time component is set to midnight
our_transactions <- sq_list_transactions(location = our_locations$id[2], 
                                         begin_time = as.Date('2018-05-11'), 
                                         end_time = as.Date('2018-05-12'))
our_transactions
#> # A tibble: 245 x 6
#>    id          location_id  created_at    tenders product client_id       
#>    <chr>       <chr>        <chr>         <list>  <chr>   <chr>           
#>  1 bUjFGVjBvN… DRDCJ2X8E2P… 2018-05-12T0… <list … REGIST… D5528FBA-E5DE-4…
#>  2 5PZP31N5Zs… DRDCJ2X8E2P… 2018-05-11T2… <list … REGIST… A3A1FF51-325A-4…
#>  3 BTrGydD6he… DRDCJ2X8E2P… 2018-05-11T2… <list … REGIST… 2B3D32EB-8E58-4…
#>  4 XsqOAHl68z… DRDCJ2X8E2P… 2018-05-11T2… <list … REGIST… C50AF3D7-BE32-4…
#>  5 vmLRzrwByS… DRDCJ2X8E2P… 2018-05-11T2… <list … REGIST… 52E40E1B-2333-4…
#>  6 pTbzQApZW7… DRDCJ2X8E2P… 2018-05-11T2… <list … REGIST… 962766FF-1436-4…
#>  7 lnE20zklpP… DRDCJ2X8E2P… 2018-05-11T2… <list … REGIST… A02191CC-9AC9-4…
#>  8 DSumrqQW0L… DRDCJ2X8E2P… 2018-05-11T2… <list … REGIST… 1135FF4F-9B89-4…
#>  9 tPwFXetIwe… DRDCJ2X8E2P… 2018-05-11T2… <list … REGIST… 0D95E79D-B44C-4…
#> 10 bqUuFrzH71… DRDCJ2X8E2P… 2018-05-11T2… <list … REGIST… 48FD6A49-80A9-4…
#> # ... with 235 more rows
…
april_customer_spend <- april_transactions %>% 
  transpose() %>%
  # pull out just the information we want from each transaction
  map_df(extract_cust_info_func) %>%
  group_by(customer_id) %>%
  summarize(total_spend = sum(money_spent, na.rm=TRUE))

april_customer_spend
#> # A tibble: 208 x 2
#>    customer_id                total_spend
#>    <chr>                            <int>
#>  1 064HFDQG0N52AHDBSG00C1BAC8        1700
#>  2 07VNWH1V4S6W4W2EJ4AN7SEJNR           0
#>  3 08M453QNJ97BCT97SM09TN7QK4           0
#>  4 08XE43X8FS0MPX8P2W4N0DEQY0         350
#>  5 0CZ78CVRW12V7AZET8S3S82GGW         675
#>  6 0G1J81148H42GGMTMQKRWSJHGC           0
#>  7 0V1Y1BX23WYRK889ERVBE2T0KM         900
#>  8 13HHFBFZTD33RX0RSJNAZQKV5M           0
#>  9 1BFCHB9MK91GQ39HTD7QK6R7ZR           0
#> 10 1DR0AK5GKX57H9ER9SG1JF01P0        2900
#> # ... with 198 more rows

The amounts in april_customer_spend may seem large, but the Square APIs return money as integers that represent whole cents. If you divide by 100, then you will have the money amounts in dollars.

Spend by Customer Group

Square has this concept of “groups” that customers belong to. These groups can be fashioned to do marketing campaigns complete with email blasts. In our analysis let’s further determine which groups these customers belong to. The Square API has an endpoint to retrieve one customer at a time; however, with large lists you may get subjected to rate limiting. Rate limiting is errors on your requests because too many are coming from the same application or access token. I would recommend pulling down the entire list of customers with sq_list_customers() and then matching them up in R.

cust_groups <- sq_list_customers() %>%
  select(id, groups) %>%
  sq_extract_cust_groups() %>%
  # filter to only the groups designated automatically by Square
  filter(grepl("^CQ689YH4KCJMY", groups.id))

cust_groups
#> # A tibble: 13,444 x 3
#>    id                         groups.id                 groups.name       
#>    <chr>                      <chr>                     <chr>             
#>  1 M1RBDFRK7S1Q1EP6EZFJFV3CBW CQ689YH4KCJMY.LOYALTY_ALL Loyalty Participa…
#>  2 58MK9F1HQ5447D1QZDX60NHTP4 CQ689YH4KCJMY.CHURN_RISK  Lapsed            
#>  3 58MK9F1HQ5447D1QZDX60NHTP4 CQ689YH4KCJMY.REACHABLE   Reachable         
#>  4 MBSJA4QV4WX6N2XV8WV9VJJTG8 CQ689YH4KCJMY.LOYALTY_ALL Loyalty Participa…
#>  5 MBSJA4QV4WX6N2XV8WV9VJJTG8 CQ689YH4KCJMY.REACHABLE   Reachable         
#>  6 ZCBZJ234217KTV812WX4DP2404 CQ689YH4KCJMY.REACHABLE   Reachable         
#>  7 FKEMR8KZCN3BH98RV78PKHKQ1R CQ689YH4KCJMY.LOYALTY_ALL Loyalty Participa…
#>  8 FKEMR8KZCN3BH98RV78PKHKQ1R CQ689YH4KCJMY.LOYAL       Regulars          
#>  9 78VMJPJNK959AHH0ZQPXDXEG3C CQ689YH4KCJMY.LOYALTY_ALL Loyalty Participa…
#> 10 QASM1G54VX0QN2S15YS6KHEFCC CQ689YH4KCJMY.LOYAL       Regulars          
#> # ... with 13,434 more rows
…
