…
One upgrade for {salesforcer 0.2.2} is better support for relationship queries, 
both child-to-parent lookups using the dot notation and parent-to-child nested 
queries. In prior releases the results were not parsed consistently and presented 
themselves in a variety of hard to debug issues on GitHub that were brought up in <a rel="noopener noreferrer" target="_blank" href="https://github.com/StevenMMortimer/salesforcer/issues/19">#19</a>, <a rel="noopener noreferrer" target="_blank" href="https://github.com/StevenMMortimer/salesforcer/issues/35">#35</a>, <a rel="noopener noreferrer" target="_blank"  href="https://github.com/StevenMMortimer/salesforcer/issues/38">#38</a>, and <a rel="noopener noreferrer" target="_blank"  href="https://github.com/StevenMMortimer/salesforcer/issues/54">#54</a>. This 
release finally aims to address some of those bugs through more consistent parsing methods 
for both the XML returned by the SOAP API and the JSON returned by the REST API. However, 
I would strongly recommend testing in your Org with your own queries to see the 
impact before deploying to a production environment. If any unexpected behavior 
crops up, then please file an issue on GitHub using the [query issue template](https://github.com/StevenMMortimer/salesforcer/issues/new?assignees=StevenMMortimer&labels=&template=query-issue-template.md&title=) so we can get it resolved.

**Old Nested Query Behavior (v0.1.4 or earlier)**
```r
sf_query("SELECT Name, (SELECT LastName FROM Contacts) FROM Account", api_type="SOAP")
#> # A tibble: 24 x 4
#>    Id    Name                        Contacts         LastName
#>    <lgl> <chr>                       <list>           <chr>   
#>  1 NA    GenePoint                   <named list [4]> <NA>    
#>  2 NA    <NA>                        <NULL>           Frank   
#>  3 NA    United Oil & Gas, UK        <named list [4]> <NA>    
#>  4 NA    <NA>                        <NULL>           James   
#>  5 NA    United Oil & Gas, Singapore <named list [5]> <NA> 
#> # … with 19 more rows
```

**New Query Behavior (v0.2.2)**

```r
sf_query("SELECT Name, (SELECT LastName FROM Contacts) FROM Account", api_type="SOAP")
#> # A tibble: 16 x 4
#>    Name                        Contact.LastName
#>    <chr>                       <chr>
#>  1 GenePoint                   Frank
#>  2 United Oil & Gas, UK        James
#>  3 United Oil & Gas, Singapore D'Cruz
#>  4 United Oil & Gas, Singapore Ripley
#>  5 Edge Communications         Forbes
#> # … with 11 more rows
```
…
