…
library(tidyverse)
library(lubridate)

# if no timezone is provided UTC is assumed
deleted_recs <- sf_get_deleted("Contact", start = Sys.Date() - 1, end = Sys.Date())
# here is how to pull deleted using yesterday according to EDT with help from lubridate
deleted_recs <- sf_get_deleted("Contact", 
                               start = ymd(Sys.Date()-1, tz="America/New_York"), 
                               end = ymd(Sys.Date(), tz="America/New_York"))
deleted_recs

## # A tibble: 1,838 x 2
##    deletedDate         id                
##    <dttm>              <chr>             
##  1 2019-06-09 14:54:55 0036A00000kHn3DQAS
##  2 2019-06-09 14:54:56 0036A00000kHu13QAC
##  3 2019-06-09 14:54:56 0036A00000kHu9RQAS
##  4 2019-06-09 14:54:55 0036A00000kHn4VQAS
##  5 2019-06-09 14:54:55 0036A00000kHn4WQAS
##  6 2019-06-09 14:54:56 0036A00000kHuAyQAK
##  7 2019-06-09 14:54:56 0036A00000kHuAzQAK
##  8 2019-06-09 14:54:55 0036A00000kHnAnQAK
##  9 2019-06-09 14:54:56 0036A00000kHu0FQAS
## 10 2019-06-09 14:54:56 0036A00000kHu1wQAC
## # … with 1,828 more rows
…
