…
The report Id above ("00O3s000006tE7zEAE") is the only information needed to pull
those same results from an R session, like so:

my_report_id <- "00O3s000006tE7zEAE"
results <- sf_run_report(my_report_id)
results
#> # A tibble: 14 x 8
#>   `Contact ID` `First Name` `test number` `Contact Owner` `Account ID`
#>   <chr>        <chr>                <dbl> <chr>           <chr>       
#> 1 0036A000002… Edna                    NA Steven Mortimer 0016A000003…
#> 2 0036A000002… Liz                     NA Steven Mortimer 0016A000003…
#> 3 0036A000002… Tom                     NA Steven Mortimer 0016A000003…
#> 4 0036A000002… Sean                    NA Steven Mortimer 0016A000003…
#> 5 0036A000002… Rose                    NA Steven Mortimer 0016A000003…
#> # … with 9 more rows, and 3 more variables: `Account Name` <chr>, `Billing
#> #   City` <chr>, `Account Owner` <chr>
…
# filter records where the account billing address city is not empty
filter2 <-  list(column = "ACCOUNT.ADDRESS1_CITY",
                        operator = "notEqual", 
                        value = "")

# combine filter1 and filter2 using 'AND' which means that records must meet both filters
results_using_AND <- sf_run_report(my_report_id, 
                                   report_boolean_logic = "1 AND 2",
                                   report_filters = list(filter1, filter2))
results_using_AND
#> # A tibble: 14 x 8
#>   `Contact ID` `First Name` `test number` `Contact Owner` `Account ID`
#>   <chr>        <chr>                <dbl> <chr>           <chr>       
#> 1 0036A000002… Rose                    NA Steven Mortimer 0016A000003…
#> 2 0036A000002… Sean                    NA Steven Mortimer 0016A000003…
#> 3 0036A000002… Jack                    99 Steven Mortimer 0016A000003…
#> 4 0036A000002… Tim                     NA Steven Mortimer 0016A000003…
#> 5 0036A000002… John                    23 Steven Mortimer 0016A000003…
#> # … with 9 more rows, and 3 more variables: `Account Name` <chr>, `Billing
#> #   City` <chr>, `Account Owner` <chr>
…
One upgrade for {salesforcer 0.2.2} is better support for relationship queries,
both child-to-parent lookups using the dot notation and parent-to-child nested
queries. In prior releases the results were not parsed consistently and presented
themselves in a variety of hard to debug issues on GitHub that were brought up in #19, #35, #38, and #54. This
release finally aims to address some of those bugs through more consistent parsing methods
for both the XML returned by the SOAP API and the JSON returned by the REST API. However,
I would strongly recommend testing in your Org with your own queries to see the
impact before deploying to a production environment. If any unexpected behavior
crops up, then please file an issue on GitHub using the query issue template so we can get it resolved.

Old Nested Query Behavior (v0.1.4 or earlier)

sf_query("SELECT Name, (SELECT LastName FROM Contacts) FROM Account", api_type="SOAP")
#> # A tibble: 24 x 4
#>    Id    Name                        Contacts         LastName
#>    <lgl> <chr>                       <list>           <chr>   
#>  1 NA    GenePoint                   <named list [4]> <NA>    
#>  2 NA    <NA>                        <NULL>           Frank   
#>  3 NA    United Oil & Gas, UK        <named list [4]> <NA>    
#>  4 NA    <NA>                        <NULL>           James   
#>  5 NA    United Oil & Gas, Singapore <named list [5]> <NA> 
#> # … with 19 more rows

New Query Behavior (v0.2.2)

sf_query("SELECT Name, (SELECT LastName FROM Contacts) FROM Account", api_type="SOAP")
#> # A tibble: 16 x 4
#>    Name                        Contact.LastName
#>    <chr>                       <chr>
#>  1 GenePoint                   Frank
#>  2 United Oil & Gas, UK        James
#>  3 United Oil & Gas, Singapore D'Cruz
#>  4 United Oil & Gas, Singapore Ripley
#>  5 Edge Communications         Forbes
#> # … with 11 more rows
…
