…
The data is returned as a list because object definitions are highly nested representations.
You may notice that we are missing some really specific details, such as, the picklist
values of a field with type “Picklist”. You can get that information using
sf_describe_object_fields(). Here is an example using sf_describe_object_fields()
where we get a tbl_df with one row for each field on the Account object:

acct_fields <- sf_describe_object_fields('Account')
acct_fields %>% select(name, label, length, soapType, type)
#> # A tibble: 69 x 5
#>   name           label            length soapType    type     
#>   <chr>          <chr>            <chr>  <chr>       <chr>    
#> 1 Id             Account ID       18     tns:ID      id       
#> 2 IsDeleted      Deleted          0      xsd:boolean boolean  
#> 3 MasterRecordId Master Record ID 18     tns:ID      reference
#> 4 Name           Account Name     255    xsd:string  string   
#> 5 Type           Account Type     40     xsd:string  picklist 
#> # … with 64 more rows
# show the picklist selection options for the Account Type field
acct_fields %>% 
  filter(label == "Account Type") %>% 
  .$picklistValues
#> [[1]]
#> # A tibble: 7 x 4
#>   active defaultValue label                      value                     
#>   <lgl>  <lgl>        <chr>                      <chr>                     
#> 1 TRUE   FALSE        Prospect                   Prospect                  
#> 2 TRUE   FALSE        Customer - Direct          Customer - Direct         
#> 3 TRUE   FALSE        Customer - Channel         Customer - Channel        
#> 4 TRUE   FALSE        Channel Partner / Reseller Channel Partner / Reseller
#> 5 TRUE   FALSE        Installation Partner       Installation Partner      
#> # … with 2 more rows
…
